dplyr
================

<br>

### 1. Encontre voos:

#### Tiveram um atraso de chegada de 2h ou mais:

``` r
flights %>% 
  filter(dep_delay >= 120)
```

    ## # A tibble: 9,888 x 19
    ##     year month   day dep_time sched_dep_time dep_delay arr_time sched_arr_time
    ##    <int> <int> <int>    <int>          <int>     <dbl>    <int>          <int>
    ##  1  2013     1     1      848           1835       853     1001           1950
    ##  2  2013     1     1      957            733       144     1056            853
    ##  3  2013     1     1     1114            900       134     1447           1222
    ##  4  2013     1     1     1540           1338       122     2020           1825
    ##  5  2013     1     1     1815           1325       290     2120           1542
    ##  6  2013     1     1     1842           1422       260     1958           1535
    ##  7  2013     1     1     1856           1645       131     2212           2005
    ##  8  2013     1     1     1934           1725       129     2126           1855
    ##  9  2013     1     1     1938           1703       155     2109           1823
    ## 10  2013     1     1     1942           1705       157     2124           1830
    ## # ... with 9,878 more rows, and 11 more variables: arr_delay <dbl>,
    ## #   carrier <chr>, flight <int>, tailnum <chr>, origin <chr>, dest <chr>,
    ## #   air_time <dbl>, distance <dbl>, hour <dbl>, minute <dbl>, time_hour <dttm>

#### Voaram para Houston (IAH ou HOU):

``` r
flights %>% 
  filter(dest %in% c("IAH", "HOU"))
```

    ## # A tibble: 9,313 x 19
    ##     year month   day dep_time sched_dep_time dep_delay arr_time sched_arr_time
    ##    <int> <int> <int>    <int>          <int>     <dbl>    <int>          <int>
    ##  1  2013     1     1      517            515         2      830            819
    ##  2  2013     1     1      533            529         4      850            830
    ##  3  2013     1     1      623            627        -4      933            932
    ##  4  2013     1     1      728            732        -4     1041           1038
    ##  5  2013     1     1      739            739         0     1104           1038
    ##  6  2013     1     1      908            908         0     1228           1219
    ##  7  2013     1     1     1028           1026         2     1350           1339
    ##  8  2013     1     1     1044           1045        -1     1352           1351
    ##  9  2013     1     1     1114            900       134     1447           1222
    ## 10  2013     1     1     1205           1200         5     1503           1505
    ## # ... with 9,303 more rows, and 11 more variables: arr_delay <dbl>,
    ## #   carrier <chr>, flight <int>, tailnum <chr>, origin <chr>, dest <chr>,
    ## #   air_time <dbl>, distance <dbl>, hour <dbl>, minute <dbl>, time_hour <dttm>

#### Foram operados pela United, American ou Delta:

``` r
flights %>% 
  left_join(airlines, by = "carrier") %>% 
  filter(name %in% c("United Air Lines Inc.", "American Airlines Inc.", "Delta Air Lines Inc."))
```

    ## # A tibble: 139,504 x 20
    ##     year month   day dep_time sched_dep_time dep_delay arr_time sched_arr_time
    ##    <int> <int> <int>    <int>          <int>     <dbl>    <int>          <int>
    ##  1  2013     1     1      517            515         2      830            819
    ##  2  2013     1     1      533            529         4      850            830
    ##  3  2013     1     1      542            540         2      923            850
    ##  4  2013     1     1      554            600        -6      812            837
    ##  5  2013     1     1      554            558        -4      740            728
    ##  6  2013     1     1      558            600        -2      753            745
    ##  7  2013     1     1      558            600        -2      924            917
    ##  8  2013     1     1      558            600        -2      923            937
    ##  9  2013     1     1      559            600        -1      941            910
    ## 10  2013     1     1      559            600        -1      854            902
    ## # ... with 139,494 more rows, and 12 more variables: arr_delay <dbl>,
    ## #   carrier <chr>, flight <int>, tailnum <chr>, origin <chr>, dest <chr>,
    ## #   air_time <dbl>, distance <dbl>, hour <dbl>, minute <dbl>, time_hour <dttm>,
    ## #   name <chr>

#### Partiram no verão americano (july, august e september):

``` r
flights %>% 
  filter(month %in% c(7, 8, 9))
```

    ## # A tibble: 86,326 x 19
    ##     year month   day dep_time sched_dep_time dep_delay arr_time sched_arr_time
    ##    <int> <int> <int>    <int>          <int>     <dbl>    <int>          <int>
    ##  1  2013     7     1        1           2029       212      236           2359
    ##  2  2013     7     1        2           2359         3      344            344
    ##  3  2013     7     1       29           2245       104      151              1
    ##  4  2013     7     1       43           2130       193      322             14
    ##  5  2013     7     1       44           2150       174      300            100
    ##  6  2013     7     1       46           2051       235      304           2358
    ##  7  2013     7     1       48           2001       287      308           2305
    ##  8  2013     7     1       58           2155       183      335             43
    ##  9  2013     7     1      100           2146       194      327             30
    ## 10  2013     7     1      100           2245       135      337            135
    ## # ... with 86,316 more rows, and 11 more variables: arr_delay <dbl>,
    ## #   carrier <chr>, flight <int>, tailnum <chr>, origin <chr>, dest <chr>,
    ## #   air_time <dbl>, distance <dbl>, hour <dbl>, minute <dbl>, time_hour <dttm>

#### Que atrasaram até 1h (partida e chegada) usando as identidades lógicas de De Morgan:

``` r
flights %>% 
  filter(dep_delay <= 60, arr_delay <= 60)
```

    ## # A tibble: 295,893 x 19
    ##     year month   day dep_time sched_dep_time dep_delay arr_time sched_arr_time
    ##    <int> <int> <int>    <int>          <int>     <dbl>    <int>          <int>
    ##  1  2013     1     1      517            515         2      830            819
    ##  2  2013     1     1      533            529         4      850            830
    ##  3  2013     1     1      542            540         2      923            850
    ##  4  2013     1     1      544            545        -1     1004           1022
    ##  5  2013     1     1      554            600        -6      812            837
    ##  6  2013     1     1      554            558        -4      740            728
    ##  7  2013     1     1      555            600        -5      913            854
    ##  8  2013     1     1      557            600        -3      709            723
    ##  9  2013     1     1      557            600        -3      838            846
    ## 10  2013     1     1      558            600        -2      753            745
    ## # ... with 295,883 more rows, and 11 more variables: arr_delay <dbl>,
    ## #   carrier <chr>, flight <int>, tailnum <chr>, origin <chr>, dest <chr>,
    ## #   air_time <dbl>, distance <dbl>, hour <dbl>, minute <dbl>, time_hour <dttm>

``` r
flights %>% 
  filter(!(dep_delay > 60 | arr_delay > 60))
```

    ## # A tibble: 295,893 x 19
    ##     year month   day dep_time sched_dep_time dep_delay arr_time sched_arr_time
    ##    <int> <int> <int>    <int>          <int>     <dbl>    <int>          <int>
    ##  1  2013     1     1      517            515         2      830            819
    ##  2  2013     1     1      533            529         4      850            830
    ##  3  2013     1     1      542            540         2      923            850
    ##  4  2013     1     1      544            545        -1     1004           1022
    ##  5  2013     1     1      554            600        -6      812            837
    ##  6  2013     1     1      554            558        -4      740            728
    ##  7  2013     1     1      555            600        -5      913            854
    ##  8  2013     1     1      557            600        -3      709            723
    ##  9  2013     1     1      557            600        -3      838            846
    ## 10  2013     1     1      558            600        -2      753            745
    ## # ... with 295,883 more rows, and 11 more variables: arr_delay <dbl>,
    ## #   carrier <chr>, flight <int>, tailnum <chr>, origin <chr>, dest <chr>,
    ## #   air_time <dbl>, distance <dbl>, hour <dbl>, minute <dbl>, time_hour <dttm>

<br>

### 2. Ordene os voos para achar os voos que foram mais rápidos:

``` r
flights %>% 
  arrange(air_time)
```

    ## # A tibble: 336,776 x 19
    ##     year month   day dep_time sched_dep_time dep_delay arr_time sched_arr_time
    ##    <int> <int> <int>    <int>          <int>     <dbl>    <int>          <int>
    ##  1  2013     1    16     1355           1315        40     1442           1411
    ##  2  2013     4    13      537            527        10      622            628
    ##  3  2013    12     6      922            851        31     1021            954
    ##  4  2013     2     3     2153           2129        24     2247           2224
    ##  5  2013     2     5     1303           1315       -12     1342           1411
    ##  6  2013     2    12     2123           2130        -7     2211           2225
    ##  7  2013     3     2     1450           1500       -10     1547           1608
    ##  8  2013     3     8     2026           1935        51     2131           2056
    ##  9  2013     3    18     1456           1329        87     1533           1426
    ## 10  2013     3    19     2226           2145        41     2305           2246
    ## # ... with 336,766 more rows, and 11 more variables: arr_delay <dbl>,
    ## #   carrier <chr>, flight <int>, tailnum <chr>, origin <chr>, dest <chr>,
    ## #   air_time <dbl>, distance <dbl>, hour <dbl>, minute <dbl>, time_hour <dttm>
…
<br>

### 4. Use a função `mutate()`a distância da média `(x - mean(x))` para cada atraso de partida e atraso de chegada. Reporte seu resultado:

``` r
flights %>% 
  mutate(mean_dist_arr_delay = arr_delay - mean(arr_delay, na.rm = TRUE),
         mean_dist_dep_delay = dep_delay - mean(dep_delay, na.rm = TRUE)) %>% 
  select(flight, arr_delay, mean_dist_arr_delay, dep_delay, mean_dist_dep_delay)
```

    ## # A tibble: 336,776 x 5
    ##    flight arr_delay mean_dist_arr_delay dep_delay mean_dist_dep_delay
    ##     <int>     <dbl>               <dbl>     <dbl>               <dbl>
    ##  1   1545        11                4.10         2              -10.6 
    ##  2   1714        20               13.1          4               -8.64
    ##  3   1141        33               26.1          2              -10.6 
    ##  4    725       -18              -24.9         -1              -13.6 
    ##  5    461       -25              -31.9         -6              -18.6 
    ##  6   1696        12                5.10        -4              -16.6 
    ##  7    507        19               12.1         -5              -17.6 
    ##  8   5708       -14              -20.9         -3              -15.6 
    ##  9     79        -8              -14.9         -3              -15.6 
    ## 10    301         8                1.10        -2              -14.6 
    ## # ... with 336,766 more rows
…
``` r
flights %>% 
  mutate(dt = lubridate::make_date(year, month, day),
         arr_delayed = case_when(arr_delay > 0 ~"yes",
                                 TRUE ~"no")) %>% 
  count(dt, arr_delayed) %>% 
  group_by(dt) %>% 
  mutate(freq = scales::percent(n / sum(n))) %>% 
  ungroup() %>% 
  filter(arr_delayed == "no") %>% 
  select(dt, freq)
```

    ## # A tibble: 365 x 2
    ##    dt         freq  
    ##    <date>     <chr> 
    ##  1 2013-01-01 45.2% 
    ##  2 2013-01-02 43%   
    ##  3 2013-01-03 49.67%
    ##  4 2013-01-04 68%   
    ##  5 2013-01-05 67%   
    ##  6 2013-01-06 54.2% 
    ##  7 2013-01-07 74%   
    ##  8 2013-01-08 69%   
    ##  9 2013-01-09 68%   
    ## 10 2013-01-10 76%   
    ## # ... with 355 more rows
